[
  {
    "id": "1",
    "name": "angular_package",
    "url": "https://github.com/kirankoirala633/angular-helloworld.git",
    "branch": "master",
    "buildPath": {
      "css": [
        "dist/assets/styles"
      ],
      "js": [
        "dist"
      ]
    },
    "template": "<app-root></app-root>",
    "buildCommand": "npm i && npm run build"
  },
  {
    "id": "2",
    "name": "angularjs_package",
    "url": "https://github.com/kirankoirala633/templateengineaanglarfeed.git ",
    "branch": "master",
    "buildPath": {
      "css": [
        "dist/css/todo.css"
      ],
      "js": [
        "dist/js/angular.min.js",
        "dist/js/todolist.js"
      ]
    },
    "template": "<div id=\"bootstrap_id\"><todo-dir></todo-dir></div>",
    "buildCommand": "npm run build"
  },
  {
    "id": "3",
    "name": "react_package",
    "url": "https://github.com/kirankoirala633/react-hello-world-app.git",
    "branch": "master",
    "buildPath": {
      "css": [
        "build/static/css"
      ],
      "js": [
        "build/static/js"
      ]
    },
    "template": "<div id=\"root\"></div>",
    "buildCommand": "npm i && npm run build"
  }
]
